…
``` r
boot_straps = 
  data_frame(
    strap_number = 1:50,
    strap_sample = rerun(50, boot_sample(weather_df))
  )

boot_straps %>% 
  filter(strap_number %in% 1:2) %>% 
  mutate(strap_sample = map(strap_sample, ~arrange(.x, tmin))) %>% 
  pull(strap_sample)
```

    ## [[1]]
    ## # A tibble: 365 x 6
    ##    name           id          date        prcp  tmax  tmin
    ##    <chr>          <chr>       <date>     <dbl> <dbl> <dbl>
    ##  1 CentralPark_NY USW00094728 2017-12-31     0  -6   -12.7
    ##  2 CentralPark_NY USW00094728 2017-12-31     0  -6   -12.7
    ##  3 CentralPark_NY USW00094728 2017-12-29     0  -5.5 -11.6
    ##  4 CentralPark_NY USW00094728 2017-12-29     0  -5.5 -11.6
    ##  5 CentralPark_NY USW00094728 2017-03-05     0   2.8  -9.9
    ##  6 CentralPark_NY USW00094728 2017-03-05     0   2.8  -9.9
    ##  7 CentralPark_NY USW00094728 2017-03-11     0  -1.6  -8.2
    ##  8 CentralPark_NY USW00094728 2017-03-11     0  -1.6  -8.2
    ##  9 CentralPark_NY USW00094728 2017-03-11     0  -1.6  -8.2
    ## 10 CentralPark_NY USW00094728 2017-12-30    13  -4.9  -8.2
    ## # … with 355 more rows
    ## 
    ## [[2]]
    ## # A tibble: 365 x 6
    ##    name           id          date        prcp  tmax  tmin
    ##    <chr>          <chr>       <date>     <dbl> <dbl> <dbl>
    ##  1 CentralPark_NY USW00094728 2017-12-31     0  -6   -12.7
    ##  2 CentralPark_NY USW00094728 2017-12-31     0  -6   -12.7
    ##  3 CentralPark_NY USW00094728 2017-12-28     0  -7.7 -11.6
    ##  4 CentralPark_NY USW00094728 2017-12-28     0  -7.7 -11.6
    ##  5 CentralPark_NY USW00094728 2017-01-09     0  -4.9  -9.9
    ##  6 CentralPark_NY USW00094728 2017-01-09     0  -4.9  -9.9
    ##  7 CentralPark_NY USW00094728 2017-03-05     0   2.8  -9.9
    ##  8 CentralPark_NY USW00094728 2017-01-08     0  -3.8  -8.8
    ##  9 CentralPark_NY USW00094728 2017-12-27     0  -4.3  -8.2
    ## 10 CentralPark_NY USW00094728 2017-03-11     0  -1.6  -8.2
    ## # … with 355 more rows
…
